{  
    "AD_UNIT_ID_FOR_BANNER_TEST":"ca-app-pub-3940256099942544\/2934735716",
    "AD_UNIT_ID_FOR_INTERSTITIAL_TEST":"ca-app-pub-3940256099942544\/4411468910",
    "CLIENT_ID":"930823811263-9j4nlsiqs4artdk0lutkbgijh3djtu4i.apps.googleusercontent.com",
    "REVERSED_CLIENT_ID":"com.googleusercontent.apps.930823811263-9j4nlsiqs4artdk0lutkbgijh3djtu4i",
    "API_KEY":"AIzaSyCelwaVD0MTaOpXVIl7esQ8kgMuO1q0D78",
    "GCM_SENDER_ID":"930823811263",
    "PLIST_VERSION":"1",
    "BUNDLE_ID":"br.com.makrocapp.app",
    "PROJECT_ID":"br-makro-cap-react-101fc",
    "STORAGE_BUCKET":"br-makro-cap-react-101fc.appspot.com",
    "IS_ADS_ENABLED":true,
    "IS_ANALYTICS_ENABLED":false,
    "IS_APPINVITE_ENABLED":false,
    "IS_GCM_ENABLED":true,
    "IS_SIGNIN_ENABLED":true,
    "GOOGLE_APP_ID":"1:930823811263:ios:b2ac2860c0cca957",
    "DATABASE_URL":"https:\/\/br-makro-cap-react-101fc.firebaseio.com"
 }