{
  "project_info": {
    "project_number": "319047518403",
    "firebase_url": "https://co-cap-react.firebaseio.com",
    "project_id": "co-cap-react",
    "storage_bucket": "co-cap-react.appspot.com"
  },
  "client": [
    {
      "client_info": {
        "mobilesdk_app_id": "1:319047518403:android:6134e05519759098",
        "android_client_info": {
          "package_name": "co.makro.cap"
        }
      },
      "oauth_client": [],
      "api_key": [
        {
          "current_key": "AIzaSyDVLa8GgN0llR9ELAogABWLIvhse1YiSWQ"
        }
      ],
      "services": {
        "appinvite_service": {
          "other_platform_oauth_client": [
            {
              "client_id": "319047518403-f946tahe22cfqskg3kkora3jutn9700g.apps.googleusercontent.com",
              "client_type": 3
            },
            {
              "client_id": "319047518403-l36ai0ghnbgqhq5gcqq7b4n6fg7gnaqu.apps.googleusercontent.com",
              "client_type": 2,
              "ios_info": {
                "bundle_id": "co.makro.cap"
              }
            }
          ]
        }
      }
    },
    {
      "client_info": {
        "mobilesdk_app_id": "1:319047518403:android:8347fe19dbc72bc4",
        "android_client_info": {
          "package_name": "co.makro.cap.debug"
        }
      },
      "oauth_client": [],
      "api_key": [
        {
          "current_key": "AIzaSyDVLa8GgN0llR9ELAogABWLIvhse1YiSWQ"
        }
      ],
      "services": {
        "appinvite_service": {
          "other_platform_oauth_client": [
            {
              "client_id": "319047518403-f946tahe22cfqskg3kkora3jutn9700g.apps.googleusercontent.com",
              "client_type": 3
            },
            {
              "client_id": "319047518403-l36ai0ghnbgqhq5gcqq7b4n6fg7gnaqu.apps.googleusercontent.com",
              "client_type": 2,
              "ios_info": {
                "bundle_id": "co.makro.cap"
              }
            }
          ]
        }
      }
    }
  ],
  "configuration_version": "1"
}